%!PS-Adobe-3.0 EPSF-3.0
%%Title: ../report/plots/feature_importance.eps
%%Creator: matplotlib version 2.2.3, http://matplotlib.org/
%%CreationDate: Mon Nov  5 12:32:41 2018
%%Orientation: portrait
%%BoundingBox: -54 180 666 612
%%EndComments
%%BeginProlog
/mpldict 8 dict def
mpldict begin
/m { moveto } bind def
/l { lineto } bind def
/r { rlineto } bind def
/c { curveto } bind def
/cl { closepath } bind def
/box {
m
1 index 0 r
0 exch r
neg 0 r
cl
} bind def
/clipbox {
box
clip
newpath
} bind def
%!PS-Adobe-3.0 Resource-Font
%%Title: DejaVu Sans
%%Copyright: Copyright (c) 2003 by Bitstream, Inc. All Rights Reserved. Copyright (c) 2006 by Tavmjong Bah. All Rights Reserved. DejaVu changes are in public domain 
%%Creator: Converted from TrueType to type 3 by PPR
25 dict begin
/_d{bind def}bind def
/_m{moveto}_d
/_l{lineto}_d
/_cl{closepath eofill}_d
/_c{curveto}_d
/_sc{7 -1 roll{setcachedevice}{pop pop pop pop pop pop}ifelse}_d
/_e{exec}_d
/FontName /DejaVuSans def
/PaintType 0 def
/FontMatrix[.001 0 0 .001 0 0]def
/FontBBox[-1021 -463 1793 1232]def
/FontType 3 def
/Encoding [ /space /zero /one /two /three /four /five /six /C /D /E /I /M /P /R /underscore /a /b /c /d /e /f /g /h /i /j /l /m /n /o /p /r /s /t /u /v /w /y ] def
/FontInfo 10 dict dup begin
/FamilyName (DejaVu Sans) def
/FullName (DejaVu Sans) def
/Notice (Copyright (c) 2003 by Bitstream, Inc. All Rights Reserved. Copyright (c) 2006 by Tavmjong Bah. All Rights Reserved. DejaVu changes are in public domain ) def
/Weight (Book) def
/Version (Version 2.35) def
/ItalicAngle 0.0 def
/isFixedPitch false def
/UnderlinePosition -130 def
/UnderlineThickness 90 def
end readonly def
/CharStrings 39 dict dup begin
/.notdef 0 def
/space{318 0 0 0 0 0 _sc
}_d
/zero{636 0 66 -13 570 742 _sc
318 664 _m
267 664 229 639 203 589 _c
177 539 165 464 165 364 _c
165 264 177 189 203 139 _c
229 89 267 64 318 64 _c
369 64 407 89 433 139 _c
458 189 471 264 471 364 _c
471 464 458 539 433 589 _c
407 639 369 664 318 664 _c
318 742 _m
399 742 461 709 505 645 _c
548 580 570 486 570 364 _c
570 241 548 147 505 83 _c
461 19 399 -13 318 -13 _c
236 -13 173 19 130 83 _c
87 147 66 241 66 364 _c
66 486 87 580 130 645 _c
173 709 236 742 318 742 _c
_cl}_d
/one{636 0 110 0 544 729 _sc
124 83 _m
285 83 _l
285 639 _l
110 604 _l
110 694 _l
284 729 _l
383 729 _l
383 83 _l
544 83 _l
544 0 _l
124 0 _l
124 83 _l
_cl}_d
/two{{636 0 73 0 536 742 _sc
192 83 _m
536 83 _l
536 0 _l
73 0 _l
73 83 _l
110 121 161 173 226 239 _c
290 304 331 346 348 365 _c
380 400 402 430 414 455 _c
426 479 433 504 433 528 _c
433 566 419 598 392 622 _c
365 646 330 659 286 659 _c
255 659 222 653 188 643 _c
154 632 117 616 78 594 _c
78 694 _l
118 710 155 722 189 730 _c
223 738 255 742 284 742 _c
}_e{359 742 419 723 464 685 _c
509 647 532 597 532 534 _c
532 504 526 475 515 449 _c
504 422 484 390 454 354 _c
446 344 420 317 376 272 _c
332 227 271 164 192 83 _c
_cl}_e}_d
/three{{636 0 76 -13 556 742 _sc
406 393 _m
453 383 490 362 516 330 _c
542 298 556 258 556 212 _c
556 140 531 84 482 45 _c
432 6 362 -13 271 -13 _c
240 -13 208 -10 176 -4 _c
144 1 110 10 76 22 _c
76 117 _l
103 101 133 89 166 81 _c
198 73 232 69 268 69 _c
330 69 377 81 409 105 _c
441 129 458 165 458 212 _c
458 254 443 288 413 312 _c
383 336 341 349 287 349 _c
}_e{202 349 _l
202 430 _l
291 430 _l
339 430 376 439 402 459 _c
428 478 441 506 441 543 _c
441 580 427 609 401 629 _c
374 649 336 659 287 659 _c
260 659 231 656 200 650 _c
169 644 135 635 98 623 _c
98 711 _l
135 721 170 729 203 734 _c
235 739 266 742 296 742 _c
370 742 429 725 473 691 _c
517 657 539 611 539 553 _c
539 513 527 479 504 451 _c
481 423 448 403 406 393 _c
_cl}_e}_d
/four{636 0 49 0 580 729 _sc
378 643 _m
129 254 _l
378 254 _l
378 643 _l
352 729 _m
476 729 _l
476 254 _l
580 254 _l
580 172 _l
476 172 _l
476 0 _l
378 0 _l
378 172 _l
49 172 _l
49 267 _l
352 729 _l
_cl}_d
/five{{636 0 77 -13 549 729 _sc
108 729 _m
495 729 _l
495 646 _l
198 646 _l
198 467 _l
212 472 227 476 241 478 _c
255 480 270 482 284 482 _c
365 482 429 459 477 415 _c
525 370 549 310 549 234 _c
549 155 524 94 475 51 _c
426 8 357 -13 269 -13 _c
238 -13 207 -10 175 -6 _c
143 -1 111 6 77 17 _c
77 116 _l
106 100 136 88 168 80 _c
199 72 232 69 267 69 _c
}_e{323 69 368 83 401 113 _c
433 143 450 183 450 234 _c
450 284 433 324 401 354 _c
368 384 323 399 267 399 _c
241 399 214 396 188 390 _c
162 384 135 375 108 363 _c
108 729 _l
_cl}_e}_d
/six{{636 0 70 -13 573 742 _sc
330 404 _m
286 404 251 388 225 358 _c
199 328 186 286 186 234 _c
186 181 199 139 225 109 _c
251 79 286 64 330 64 _c
374 64 409 79 435 109 _c
461 139 474 181 474 234 _c
474 286 461 328 435 358 _c
409 388 374 404 330 404 _c
526 713 _m
526 623 _l
501 635 476 644 451 650 _c
425 656 400 659 376 659 _c
310 659 260 637 226 593 _c
}_e{192 549 172 482 168 394 _c
187 422 211 444 240 459 _c
269 474 301 482 336 482 _c
409 482 467 459 509 415 _c
551 371 573 310 573 234 _c
573 159 550 99 506 54 _c
462 9 403 -13 330 -13 _c
246 -13 181 19 137 83 _c
92 147 70 241 70 364 _c
70 479 97 571 152 639 _c
206 707 280 742 372 742 _c
396 742 421 739 447 735 _c
472 730 498 723 526 713 _c
_cl}_e}_d
/C{{698 0 56 -13 644 742 _sc
644 673 _m
644 569 _l
610 599 575 622 537 638 _c
499 653 460 661 418 661 _c
334 661 270 635 226 584 _c
182 533 160 460 160 364 _c
160 268 182 194 226 143 _c
270 92 334 67 418 67 _c
460 67 499 74 537 90 _c
575 105 610 128 644 159 _c
644 56 _l
609 32 572 15 534 4 _c
496 -7 455 -13 412 -13 _c
302 -13 215 20 151 87 _c
}_e{87 154 56 246 56 364 _c
56 481 87 573 151 641 _c
215 708 302 742 412 742 _c
456 742 497 736 535 725 _c
573 713 610 696 644 673 _c
_cl}_e}_d
/D{770 0 98 0 711 729 _sc
197 648 _m
197 81 _l
316 81 _l
416 81 490 103 537 149 _c
583 195 607 267 607 365 _c
607 463 583 534 537 580 _c
490 625 416 648 316 648 _c
197 648 _l
98 729 _m
301 729 _l
442 729 546 699 612 641 _c
678 582 711 490 711 365 _c
711 239 677 147 611 88 _c
545 29 441 0 301 0 _c
98 0 _l
98 729 _l
_cl}_d
/E{632 0 98 0 568 729 _sc
98 729 _m
559 729 _l
559 646 _l
197 646 _l
197 430 _l
544 430 _l
544 347 _l
197 347 _l
197 83 _l
568 83 _l
568 0 _l
98 0 _l
98 729 _l
_cl}_d
/I{295 0 98 0 197 729 _sc
98 729 _m
197 729 _l
197 0 _l
98 0 _l
98 729 _l
_cl}_d
/M{863 0 98 0 765 729 _sc
98 729 _m
245 729 _l
431 233 _l
618 729 _l
765 729 _l
765 0 _l
669 0 _l
669 640 _l
481 140 _l
382 140 _l
194 640 _l
194 0 _l
98 0 _l
98 729 _l
_cl}_d
/P{603 0 98 0 569 729 _sc
197 648 _m
197 374 _l
321 374 _l
367 374 402 385 427 409 _c
452 433 465 467 465 511 _c
465 555 452 588 427 612 _c
402 636 367 648 321 648 _c
197 648 _l
98 729 _m
321 729 _l
402 729 464 710 506 673 _c
548 636 569 582 569 511 _c
569 439 548 384 506 348 _c
464 311 402 293 321 293 _c
197 293 _l
197 0 _l
98 0 _l
98 729 _l
_cl}_d
/R{{695 0 98 0 666 729 _sc
444 342 _m
465 334 486 319 506 296 _c
526 272 546 240 566 199 _c
666 0 _l
560 0 _l
467 187 _l
443 235 419 268 397 284 _c
374 300 343 308 304 308 _c
197 308 _l
197 0 _l
98 0 _l
98 729 _l
321 729 _l
404 729 466 711 507 677 _c
548 642 569 589 569 519 _c
569 473 558 434 537 404 _c
515 374 484 353 444 342 _c
197 648 _m
197 389 _l
321 389 _l
}_e{368 389 404 400 428 422 _c
452 444 465 476 465 519 _c
465 561 452 593 428 615 _c
404 637 368 648 321 648 _c
197 648 _l
_cl}_e}_d
/underscore{500 0 -9 -235 510 -165 _sc
510 -165 _m
510 -235 _l
-9 -235 _l
-9 -165 _l
510 -165 _l
_cl}_d
/a{{613 0 60 -13 522 560 _sc
343 275 _m
270 275 220 266 192 250 _c
164 233 150 205 150 165 _c
150 133 160 107 181 89 _c
202 70 231 61 267 61 _c
317 61 357 78 387 114 _c
417 149 432 196 432 255 _c
432 275 _l
343 275 _l
522 312 _m
522 0 _l
432 0 _l
432 83 _l
411 49 385 25 355 10 _c
325 -5 287 -13 243 -13 _c
187 -13 142 2 109 33 _c
76 64 60 106 60 159 _c
}_e{60 220 80 266 122 298 _c
163 329 224 345 306 345 _c
432 345 _l
432 354 _l
432 395 418 427 391 450 _c
364 472 326 484 277 484 _c
245 484 215 480 185 472 _c
155 464 127 453 100 439 _c
100 522 _l
132 534 164 544 195 550 _c
226 556 256 560 286 560 _c
365 560 424 539 463 498 _c
502 457 522 395 522 312 _c
_cl}_e}_d
/b{{635 0 91 -13 580 760 _sc
487 273 _m
487 339 473 390 446 428 _c
418 466 381 485 334 485 _c
286 485 249 466 222 428 _c
194 390 181 339 181 273 _c
181 207 194 155 222 117 _c
249 79 286 61 334 61 _c
381 61 418 79 446 117 _c
473 155 487 207 487 273 _c
181 464 _m
199 496 223 520 252 536 _c
281 552 316 560 356 560 _c
422 560 476 533 518 481 _c
559 428 580 359 580 273 _c
}_e{580 187 559 117 518 65 _c
476 13 422 -13 356 -13 _c
316 -13 281 -5 252 10 _c
223 25 199 49 181 82 _c
181 0 _l
91 0 _l
91 760 _l
181 760 _l
181 464 _l
_cl}_e}_d
/c{{550 0 55 -13 488 560 _sc
488 526 _m
488 442 _l
462 456 437 466 411 473 _c
385 480 360 484 334 484 _c
276 484 230 465 198 428 _c
166 391 150 339 150 273 _c
150 206 166 154 198 117 _c
230 80 276 62 334 62 _c
360 62 385 65 411 72 _c
437 79 462 90 488 104 _c
488 21 _l
462 9 436 0 410 -5 _c
383 -10 354 -13 324 -13 _c
242 -13 176 12 128 64 _c
}_e{79 115 55 185 55 273 _c
55 362 79 432 128 483 _c
177 534 244 560 330 560 _c
358 560 385 557 411 551 _c
437 545 463 537 488 526 _c
_cl}_e}_d
/d{{635 0 55 -13 544 760 _sc
454 464 _m
454 760 _l
544 760 _l
544 0 _l
454 0 _l
454 82 _l
435 49 411 25 382 10 _c
353 -5 319 -13 279 -13 _c
213 -13 159 13 117 65 _c
75 117 55 187 55 273 _c
55 359 75 428 117 481 _c
159 533 213 560 279 560 _c
319 560 353 552 382 536 _c
411 520 435 496 454 464 _c
148 273 _m
148 207 161 155 188 117 _c
215 79 253 61 301 61 _c
}_e{348 61 385 79 413 117 _c
440 155 454 207 454 273 _c
454 339 440 390 413 428 _c
385 466 348 485 301 485 _c
253 485 215 466 188 428 _c
161 390 148 339 148 273 _c
_cl}_e}_d
/e{{615 0 55 -13 562 560 _sc
562 296 _m
562 252 _l
149 252 _l
153 190 171 142 205 110 _c
238 78 284 62 344 62 _c
378 62 412 66 444 74 _c
476 82 509 95 541 113 _c
541 28 _l
509 14 476 3 442 -3 _c
408 -9 373 -13 339 -13 _c
251 -13 182 12 131 62 _c
80 112 55 181 55 268 _c
55 357 79 428 127 481 _c
175 533 241 560 323 560 _c
397 560 455 536 498 489 _c
}_e{540 441 562 377 562 296 _c
472 322 _m
471 371 457 410 431 440 _c
404 469 368 484 324 484 _c
274 484 234 469 204 441 _c
174 413 156 373 152 322 _c
472 322 _l
_cl}_e}_d
/f{352 0 23 0 371 760 _sc
371 760 _m
371 685 _l
285 685 _l
253 685 230 678 218 665 _c
205 652 199 629 199 595 _c
199 547 _l
347 547 _l
347 477 _l
199 477 _l
199 0 _l
109 0 _l
109 477 _l
23 477 _l
23 547 _l
109 547 _l
109 585 _l
109 645 123 690 151 718 _c
179 746 224 760 286 760 _c
371 760 _l
_cl}_d
/g{{635 0 55 -207 544 560 _sc
454 280 _m
454 344 440 395 414 431 _c
387 467 349 485 301 485 _c
253 485 215 467 188 431 _c
161 395 148 344 148 280 _c
148 215 161 165 188 129 _c
215 93 253 75 301 75 _c
349 75 387 93 414 129 _c
440 165 454 215 454 280 _c
544 68 _m
544 -24 523 -93 482 -139 _c
440 -184 377 -207 292 -207 _c
260 -207 231 -204 203 -200 _c
175 -195 147 -188 121 -178 _c
}_e{121 -91 _l
147 -105 173 -115 199 -122 _c
225 -129 251 -133 278 -133 _c
336 -133 380 -117 410 -87 _c
439 -56 454 -10 454 52 _c
454 96 _l
435 64 411 40 382 24 _c
353 8 319 0 279 0 _c
211 0 157 25 116 76 _c
75 127 55 195 55 280 _c
55 364 75 432 116 483 _c
157 534 211 560 279 560 _c
319 560 353 552 382 536 _c
411 520 435 496 454 464 _c
454 547 _l
544 547 _l
}_e{544 68 _l
_cl}_e}_d
/h{634 0 91 0 549 760 _sc
549 330 _m
549 0 _l
459 0 _l
459 327 _l
459 379 448 417 428 443 _c
408 469 378 482 338 482 _c
289 482 251 466 223 435 _c
195 404 181 362 181 309 _c
181 0 _l
91 0 _l
91 760 _l
181 760 _l
181 462 _l
202 494 227 519 257 535 _c
286 551 320 560 358 560 _c
420 560 468 540 500 501 _c
532 462 549 405 549 330 _c
_cl}_d
/i{278 0 94 0 184 760 _sc
94 547 _m
184 547 _l
184 0 _l
94 0 _l
94 547 _l
94 760 _m
184 760 _l
184 646 _l
94 646 _l
94 760 _l
_cl}_d
/j{278 0 -17 -207 184 760 _sc
94 547 _m
184 547 _l
184 -9 _l
184 -78 170 -128 144 -160 _c
117 -191 74 -207 16 -207 _c
-17 -207 _l
-17 -131 _l
6 -131 _l
40 -131 63 -123 75 -107 _c
87 -91 94 -58 94 -9 _c
94 547 _l
94 760 _m
184 760 _l
184 646 _l
94 646 _l
94 760 _l
_cl}_d
/l{278 0 94 0 184 760 _sc
94 760 _m
184 760 _l
184 0 _l
94 0 _l
94 760 _l
_cl}_d
/m{{974 0 91 0 889 560 _sc
520 442 _m
542 482 569 511 600 531 _c
631 550 668 560 711 560 _c
767 560 811 540 842 500 _c
873 460 889 403 889 330 _c
889 0 _l
799 0 _l
799 327 _l
799 379 789 418 771 444 _c
752 469 724 482 686 482 _c
639 482 602 466 575 435 _c
548 404 535 362 535 309 _c
535 0 _l
445 0 _l
445 327 _l
445 379 435 418 417 444 _c
398 469 369 482 331 482 _c
}_e{285 482 248 466 221 435 _c
194 404 181 362 181 309 _c
181 0 _l
91 0 _l
91 547 _l
181 547 _l
181 462 _l
201 495 226 520 255 536 _c
283 552 317 560 357 560 _c
397 560 430 550 458 530 _c
486 510 506 480 520 442 _c
_cl}_e}_d
/n{634 0 91 0 549 560 _sc
549 330 _m
549 0 _l
459 0 _l
459 327 _l
459 379 448 417 428 443 _c
408 469 378 482 338 482 _c
289 482 251 466 223 435 _c
195 404 181 362 181 309 _c
181 0 _l
91 0 _l
91 547 _l
181 547 _l
181 462 _l
202 494 227 519 257 535 _c
286 551 320 560 358 560 _c
420 560 468 540 500 501 _c
532 462 549 405 549 330 _c
_cl}_d
/o{612 0 55 -13 557 560 _sc
306 484 _m
258 484 220 465 192 427 _c
164 389 150 338 150 273 _c
150 207 163 156 191 118 _c
219 80 257 62 306 62 _c
354 62 392 80 420 118 _c
448 156 462 207 462 273 _c
462 337 448 389 420 427 _c
392 465 354 484 306 484 _c
306 560 _m
384 560 445 534 490 484 _c
534 433 557 363 557 273 _c
557 183 534 113 490 63 _c
445 12 384 -13 306 -13 _c
227 -13 165 12 121 63 _c
77 113 55 183 55 273 _c
55 363 77 433 121 484 _c
165 534 227 560 306 560 _c
_cl}_d
/p{{635 0 91 -207 580 560 _sc
181 82 _m
181 -207 _l
91 -207 _l
91 547 _l
181 547 _l
181 464 _l
199 496 223 520 252 536 _c
281 552 316 560 356 560 _c
422 560 476 533 518 481 _c
559 428 580 359 580 273 _c
580 187 559 117 518 65 _c
476 13 422 -13 356 -13 _c
316 -13 281 -5 252 10 _c
223 25 199 49 181 82 _c
487 273 _m
487 339 473 390 446 428 _c
418 466 381 485 334 485 _c
}_e{286 485 249 466 222 428 _c
194 390 181 339 181 273 _c
181 207 194 155 222 117 _c
249 79 286 61 334 61 _c
381 61 418 79 446 117 _c
473 155 487 207 487 273 _c
_cl}_e}_d
/r{411 0 91 0 411 560 _sc
411 463 _m
401 469 390 473 378 476 _c
366 478 353 480 339 480 _c
288 480 249 463 222 430 _c
194 397 181 350 181 288 _c
181 0 _l
91 0 _l
91 547 _l
181 547 _l
181 462 _l
199 495 224 520 254 536 _c
284 552 321 560 365 560 _c
371 560 378 559 386 559 _c
393 558 401 557 411 555 _c
411 463 _l
_cl}_d
/s{{521 0 54 -13 472 560 _sc
443 531 _m
443 446 _l
417 458 391 468 364 475 _c
336 481 308 485 279 485 _c
234 485 200 478 178 464 _c
156 450 145 430 145 403 _c
145 382 153 366 169 354 _c
185 342 217 330 265 320 _c
296 313 _l
360 299 405 279 432 255 _c
458 230 472 195 472 151 _c
472 100 452 60 412 31 _c
372 1 316 -13 246 -13 _c
216 -13 186 -10 154 -5 _c
}_e{122 0 89 8 54 20 _c
54 113 _l
87 95 120 82 152 74 _c
184 65 216 61 248 61 _c
290 61 323 68 346 82 _c
368 96 380 117 380 144 _c
380 168 371 187 355 200 _c
339 213 303 226 247 238 _c
216 245 _l
160 257 119 275 95 299 _c
70 323 58 356 58 399 _c
58 450 76 490 112 518 _c
148 546 200 560 268 560 _c
301 560 332 557 362 552 _c
391 547 418 540 443 531 _c
}_e{_cl}_e}_d
/t{392 0 27 0 368 702 _sc
183 702 _m
183 547 _l
368 547 _l
368 477 _l
183 477 _l
183 180 _l
183 135 189 106 201 94 _c
213 81 238 75 276 75 _c
368 75 _l
368 0 _l
276 0 _l
206 0 158 13 132 39 _c
106 65 93 112 93 180 _c
93 477 _l
27 477 _l
27 547 _l
93 547 _l
93 702 _l
183 702 _l
_cl}_d
/u{634 0 85 -13 543 560 _sc
85 216 _m
85 547 _l
175 547 _l
175 219 _l
175 167 185 129 205 103 _c
225 77 255 64 296 64 _c
344 64 383 79 411 110 _c
439 141 453 183 453 237 _c
453 547 _l
543 547 _l
543 0 _l
453 0 _l
453 84 _l
431 50 405 26 377 10 _c
348 -5 315 -13 277 -13 _c
214 -13 166 6 134 45 _c
101 83 85 140 85 216 _c
311 560 _m
311 560 _l
_cl}_d
/v{592 0 30 0 562 547 _sc
30 547 _m
125 547 _l
296 88 _l
467 547 _l
562 547 _l
357 0 _l
235 0 _l
30 547 _l
_cl}_d
/w{818 0 42 0 776 547 _sc
42 547 _m
132 547 _l
244 120 _l
356 547 _l
462 547 _l
574 120 _l
686 547 _l
776 547 _l
633 0 _l
527 0 _l
409 448 _l
291 0 _l
185 0 _l
42 547 _l
_cl}_d
/y{592 0 30 -207 562 547 _sc
322 -50 _m
296 -114 271 -157 247 -177 _c
223 -197 191 -207 151 -207 _c
79 -207 _l
79 -132 _l
132 -132 _l
156 -132 175 -126 189 -114 _c
203 -102 218 -75 235 -31 _c
251 9 _l
30 547 _l
125 547 _l
296 119 _l
467 547 _l
562 547 _l
322 -50 _l
_cl}_d
end readonly def

/BuildGlyph
 {exch begin
 CharStrings exch
 2 copy known not{pop /.notdef}if
 true 3 1 roll get exec
 end}_d

/BuildChar {
 1 index /Encoding get exch get
 1 index /BuildGlyph get exec
}_d

FontName currentdict end definefont pop
end
%%EndProlog
mpldict begin
-54 180 translate
720 432 0 0 clipbox
gsave
0 0 m
720 0 l
720 432 l
0 432 l
cl
1.000 setgray
fill
grestore
gsave
307.3 41.8 m
705.7 41.8 l
705.7 417.7 l
307.3 417.7 l
cl
1.000 setgray
fill
grestore
gsave
398.4 375.9 307.3 41.8 clipbox
307.3 415.611667 m
686.728571 415.611667 l
686.728571 398.905 l
307.3 398.905 l
cl
0.042 0.291 0.141 setrgbcolor
fill
grestore
gsave
398.4 375.9 307.3 41.8 clipbox
307.3 394.728333 m
634.197251 394.728333 l
634.197251 378.021667 l
307.3 378.021667 l
cl
0.050 0.348 0.170 setrgbcolor
fill
grestore
gsave
398.4 375.9 307.3 41.8 clipbox
307.3 373.845 m
612.754889 373.845 l
612.754889 357.138333 l
307.3 357.138333 l
cl
0.088 0.405 0.210 setrgbcolor
fill
grestore
gsave
398.4 375.9 307.3 41.8 clipbox
307.3 352.961667 m
605.617736 352.961667 l
605.617736 336.255 l
307.3 336.255 l
cl
0.143 0.454 0.253 setrgbcolor
fill
grestore
gsave
398.4 375.9 307.3 41.8 clipbox
307.3 332.078333 m
583.389338 332.078333 l
583.389338 315.371667 l
307.3 315.371667 l
cl
0.200 0.508 0.306 setrgbcolor
fill
grestore
gsave
398.4 375.9 307.3 41.8 clipbox
307.3 311.195 m
536.194815 311.195 l
536.194815 294.488333 l
307.3 294.488333 l
cl
0.249 0.563 0.378 setrgbcolor
fill
grestore
gsave
398.4 375.9 307.3 41.8 clipbox
307.3 290.311667 m
529.755808 290.311667 l
529.755808 273.605 l
307.3 273.605 l
cl
0.302 0.622 0.455 setrgbcolor
fill
grestore
gsave
398.4 375.9 307.3 41.8 clipbox
307.3 269.428333 m
524.616413 269.428333 l
524.616413 252.721667 l
307.3 252.721667 l
cl
0.357 0.660 0.522 setrgbcolor
fill
grestore
gsave
398.4 375.9 307.3 41.8 clipbox
307.3 248.545 m
524.230636 248.545 l
524.230636 231.838333 l
307.3 231.838333 l
cl
0.417 0.698 0.594 setrgbcolor
fill
grestore
gsave
398.4 375.9 307.3 41.8 clipbox
307.3 227.661667 m
508.871527 227.661667 l
508.871527 210.955 l
307.3 210.955 l
cl
0.483 0.736 0.657 setrgbcolor
fill
grestore
gsave
398.4 375.9 307.3 41.8 clipbox
307.3 206.778333 m
478.409682 206.778333 l
478.409682 190.071667 l
307.3 190.071667 l
cl
0.565 0.780 0.720 setrgbcolor
fill
grestore
gsave
398.4 375.9 307.3 41.8 clipbox
307.3 185.895 m
473.436581 185.895 l
473.436581 169.188333 l
307.3 169.188333 l
cl
0.640 0.821 0.778 setrgbcolor
fill
grestore
gsave
398.4 375.9 307.3 41.8 clipbox
307.3 165.011667 m
458.964738 165.011667 l
458.964738 148.305 l
307.3 148.305 l
cl
0.721 0.862 0.831 setrgbcolor
fill
grestore
gsave
398.4 375.9 307.3 41.8 clipbox
307.3 144.128333 m
438.726826 144.128333 l
438.726826 127.421667 l
307.3 127.421667 l
cl
0.797 0.900 0.880 setrgbcolor
fill
grestore
gsave
398.4 375.9 307.3 41.8 clipbox
307.3 123.245 m
438.408098 123.245 l
438.408098 106.538333 l
307.3 106.538333 l
cl
0.846 0.924 0.917 setrgbcolor
fill
grestore
gsave
398.4 375.9 307.3 41.8 clipbox
307.3 102.361667 m
433.469715 102.361667 l
433.469715 85.655 l
307.3 85.655 l
cl
0.884 0.943 0.947 setrgbcolor
fill
grestore
gsave
398.4 375.9 307.3 41.8 clipbox
307.3 81.478333 m
425.141995 81.478333 l
425.141995 64.771667 l
307.3 64.771667 l
cl
0.920 0.961 0.971 setrgbcolor
fill
grestore
gsave
398.4 375.9 307.3 41.8 clipbox
307.3 60.595 m
417.355655 60.595 l
417.355655 43.888333 l
307.3 43.888333 l
cl
0.946 0.973 0.980 setrgbcolor
fill
grestore
0.800 setlinewidth
1 setlinejoin
0 setlinecap
[] 0 setdash
0.000 setgray
gsave
/o {
gsave
newpath
translate
0.8 setlinewidth
1 setlinejoin
0 setlinecap
0 0 m
0 -3.5 l

gsave
0.000 setgray
fill
grestore
stroke
grestore
} bind def
307.3 41.8 o
grestore
/DejaVuSans findfont
10.000 scalefont
setfont
gsave
304.120313 27.206250 translate
0.000000 rotate
0.000000 0.000000 m /zero glyphshow
grestore
gsave
/o {
gsave
newpath
translate
0.8 setlinewidth
1 setlinejoin
0 setlinecap
0 0 m
0 -3.5 l

gsave
0.000 setgray
fill
grestore
stroke
grestore
} bind def
381.186 41.8 o
grestore
gsave
374.826969 27.206250 translate
0.000000 rotate
0.000000 0.000000 m /five glyphshow
6.362305 0.000000 m /zero glyphshow
grestore
gsave
/o {
gsave
newpath
translate
0.8 setlinewidth
1 setlinejoin
0 setlinecap
0 0 m
0 -3.5 l

gsave
0.000 setgray
fill
grestore
stroke
grestore
} bind def
455.073 41.8 o
grestore
gsave
445.533625 27.206250 translate
0.000000 rotate
0.000000 0.000000 m /one glyphshow
6.362305 0.000000 m /zero glyphshow
12.724609 0.000000 m /zero glyphshow
grestore
gsave
/o {
gsave
newpath
translate
0.8 setlinewidth
1 setlinejoin
0 setlinecap
0 0 m
0 -3.5 l

gsave
0.000 setgray
fill
grestore
stroke
grestore
} bind def
528.959 41.8 o
grestore
gsave
519.419968 27.206250 translate
0.000000 rotate
0.000000 0.000000 m /one glyphshow
6.362305 0.000000 m /five glyphshow
12.724609 0.000000 m /zero glyphshow
grestore
gsave
/o {
gsave
newpath
translate
0.8 setlinewidth
1 setlinejoin
0 setlinecap
0 0 m
0 -3.5 l

gsave
0.000 setgray
fill
grestore
stroke
grestore
} bind def
602.845 41.8 o
grestore
gsave
593.306312 27.206250 translate
0.000000 rotate
0.000000 0.000000 m /two glyphshow
6.362305 0.000000 m /zero glyphshow
12.724609 0.000000 m /zero glyphshow
grestore
gsave
/o {
gsave
newpath
translate
0.8 setlinewidth
1 setlinejoin
0 setlinecap
0 0 m
0 -3.5 l

gsave
0.000 setgray
fill
grestore
stroke
grestore
} bind def
676.732 41.8 o
grestore
gsave
667.192655 27.206250 translate
0.000000 rotate
0.000000 0.000000 m /two glyphshow
6.362305 0.000000 m /five glyphshow
12.724609 0.000000 m /zero glyphshow
grestore
gsave
467.437500 13.534375 translate
0.000000 rotate
0.000000 0.000000 m /m glyphshow
9.741211 0.000000 m /e glyphshow
15.893555 0.000000 m /a glyphshow
22.021484 0.000000 m /n glyphshow
28.359375 0.000000 m /space glyphshow
31.538086 0.000000 m /o glyphshow
37.656250 0.000000 m /f glyphshow
41.176758 0.000000 m /space glyphshow
44.355469 0.000000 m /w glyphshow
52.534180 0.000000 m /e glyphshow
58.686523 0.000000 m /i glyphshow
61.464844 0.000000 m /g glyphshow
67.812500 0.000000 m /h glyphshow
74.150391 0.000000 m /t glyphshow
grestore
gsave
/o {
gsave
newpath
translate
0.8 setlinewidth
1 setlinejoin
0 setlinecap
0 0 m
-3.5 0 l

gsave
0.000 setgray
fill
grestore
stroke
grestore
} bind def
307.3 407.258 o
grestore
gsave
97.346875 403.461458 translate
0.000000 rotate
0.000000 0.000000 m /D glyphshow
7.700195 0.000000 m /E glyphshow
14.018555 0.000000 m /R glyphshow
20.966797 0.000000 m /underscore glyphshow
25.966797 0.000000 m /m glyphshow
35.708008 0.000000 m /a glyphshow
41.835938 0.000000 m /s glyphshow
47.045898 0.000000 m /s glyphshow
52.255859 0.000000 m /underscore glyphshow
57.255859 0.000000 m /t glyphshow
61.176758 0.000000 m /r glyphshow
65.288086 0.000000 m /a glyphshow
71.416016 0.000000 m /n glyphshow
77.753906 0.000000 m /s glyphshow
82.963867 0.000000 m /v glyphshow
88.881836 0.000000 m /e glyphshow
95.034180 0.000000 m /r glyphshow
99.145508 0.000000 m /s glyphshow
104.355469 0.000000 m /e glyphshow
110.507812 0.000000 m /underscore glyphshow
115.507812 0.000000 m /m glyphshow
125.249023 0.000000 m /e glyphshow
131.401367 0.000000 m /t glyphshow
135.322266 0.000000 m /underscore glyphshow
140.322266 0.000000 m /l glyphshow
143.100586 0.000000 m /e glyphshow
149.252930 0.000000 m /p glyphshow
155.600586 0.000000 m /underscore glyphshow
160.600586 0.000000 m /p glyphshow
166.948242 0.000000 m /o glyphshow
173.066406 0.000000 m /w glyphshow
181.245117 0.000000 m /e glyphshow
187.397461 0.000000 m /r glyphshow
191.508789 0.000000 m /underscore glyphshow
196.508789 0.000000 m /five glyphshow
grestore
gsave
/o {
gsave
newpath
translate
0.8 setlinewidth
1 setlinejoin
0 setlinecap
0 0 m
-3.5 0 l

gsave
0.000 setgray
fill
grestore
stroke
grestore
} bind def
307.3 386.375 o
grestore
gsave
144.628125 382.578125 translate
0.000000 rotate
0.000000 0.000000 m /D glyphshow
7.700195 0.000000 m /E glyphshow
14.018555 0.000000 m /R glyphshow
20.966797 0.000000 m /underscore glyphshow
25.966797 0.000000 m /m glyphshow
35.708008 0.000000 m /a glyphshow
41.835938 0.000000 m /s glyphshow
47.045898 0.000000 m /s glyphshow
52.255859 0.000000 m /underscore glyphshow
57.255859 0.000000 m /t glyphshow
61.176758 0.000000 m /r glyphshow
65.288086 0.000000 m /a glyphshow
71.416016 0.000000 m /n glyphshow
77.753906 0.000000 m /s glyphshow
82.963867 0.000000 m /v glyphshow
88.881836 0.000000 m /e glyphshow
95.034180 0.000000 m /r glyphshow
99.145508 0.000000 m /s glyphshow
104.355469 0.000000 m /e glyphshow
110.507812 0.000000 m /underscore glyphshow
115.507812 0.000000 m /m glyphshow
125.249023 0.000000 m /e glyphshow
131.401367 0.000000 m /t glyphshow
135.322266 0.000000 m /underscore glyphshow
140.322266 0.000000 m /l glyphshow
143.100586 0.000000 m /e glyphshow
149.252930 0.000000 m /p glyphshow
grestore
gsave
/o {
gsave
newpath
translate
0.8 setlinewidth
1 setlinejoin
0 setlinecap
0 0 m
-3.5 0 l

gsave
0.000 setgray
fill
grestore
stroke
grestore
} bind def
307.3 365.492 o
grestore
gsave
89.831250 361.694792 translate
0.000000 rotate
0.000000 0.000000 m /a glyphshow
6.127930 0.000000 m /b glyphshow
12.475586 0.000000 m /s glyphshow
17.685547 0.000000 m /underscore glyphshow
22.685547 0.000000 m /d glyphshow
29.033203 0.000000 m /i glyphshow
31.811523 0.000000 m /f glyphshow
35.332031 0.000000 m /f glyphshow
38.852539 0.000000 m /underscore glyphshow
43.852539 0.000000 m /D glyphshow
51.552734 0.000000 m /E glyphshow
57.871094 0.000000 m /R glyphshow
64.819336 0.000000 m /underscore glyphshow
69.819336 0.000000 m /p glyphshow
76.166992 0.000000 m /t glyphshow
80.087891 0.000000 m /underscore glyphshow
85.087891 0.000000 m /h glyphshow
91.425781 0.000000 m /underscore glyphshow
96.425781 0.000000 m /P glyphshow
102.456055 0.000000 m /R glyphshow
109.404297 0.000000 m /I glyphshow
112.353516 0.000000 m /underscore glyphshow
117.353516 0.000000 m /j glyphshow
120.131836 0.000000 m /e glyphshow
126.284180 0.000000 m /t glyphshow
130.205078 0.000000 m /underscore glyphshow
135.205078 0.000000 m /s glyphshow
140.415039 0.000000 m /u glyphshow
146.752930 0.000000 m /b glyphshow
153.100586 0.000000 m /l glyphshow
155.878906 0.000000 m /e glyphshow
162.031250 0.000000 m /a glyphshow
168.159180 0.000000 m /d glyphshow
174.506836 0.000000 m /i glyphshow
177.285156 0.000000 m /n glyphshow
183.623047 0.000000 m /g glyphshow
189.970703 0.000000 m /underscore glyphshow
194.970703 0.000000 m /p glyphshow
201.318359 0.000000 m /h glyphshow
207.656250 0.000000 m /i glyphshow
grestore
gsave
/o {
gsave
newpath
translate
0.8 setlinewidth
1 setlinejoin
0 setlinecap
0 0 m
-3.5 0 l

gsave
0.000 setgray
fill
grestore
stroke
grestore
} bind def
307.3 344.608 o
grestore
gsave
97.346875 340.811458 translate
0.000000 rotate
0.000000 0.000000 m /D glyphshow
7.700195 0.000000 m /E glyphshow
14.018555 0.000000 m /R glyphshow
20.966797 0.000000 m /underscore glyphshow
25.966797 0.000000 m /m glyphshow
35.708008 0.000000 m /a glyphshow
41.835938 0.000000 m /s glyphshow
47.045898 0.000000 m /s glyphshow
52.255859 0.000000 m /underscore glyphshow
57.255859 0.000000 m /t glyphshow
61.176758 0.000000 m /r glyphshow
65.288086 0.000000 m /a glyphshow
71.416016 0.000000 m /n glyphshow
77.753906 0.000000 m /s glyphshow
82.963867 0.000000 m /v glyphshow
88.881836 0.000000 m /e glyphshow
95.034180 0.000000 m /r glyphshow
99.145508 0.000000 m /s glyphshow
104.355469 0.000000 m /e glyphshow
110.507812 0.000000 m /underscore glyphshow
115.507812 0.000000 m /m glyphshow
125.249023 0.000000 m /e glyphshow
131.401367 0.000000 m /t glyphshow
135.322266 0.000000 m /underscore glyphshow
140.322266 0.000000 m /l glyphshow
143.100586 0.000000 m /e glyphshow
149.252930 0.000000 m /p glyphshow
155.600586 0.000000 m /underscore glyphshow
160.600586 0.000000 m /p glyphshow
166.948242 0.000000 m /o glyphshow
173.066406 0.000000 m /w glyphshow
181.245117 0.000000 m /e glyphshow
187.397461 0.000000 m /r glyphshow
191.508789 0.000000 m /underscore glyphshow
196.508789 0.000000 m /four glyphshow
grestore
gsave
/o {
gsave
newpath
translate
0.8 setlinewidth
1 setlinejoin
0 setlinecap
0 0 m
-3.5 0 l

gsave
0.000 setgray
fill
grestore
stroke
grestore
} bind def
307.3 323.725 o
grestore
gsave
116.893750 319.928125 translate
0.000000 rotate
0.000000 0.000000 m /D glyphshow
7.700195 0.000000 m /E glyphshow
14.018555 0.000000 m /R glyphshow
20.966797 0.000000 m /underscore glyphshow
25.966797 0.000000 m /m glyphshow
35.708008 0.000000 m /a glyphshow
41.835938 0.000000 m /s glyphshow
47.045898 0.000000 m /s glyphshow
52.255859 0.000000 m /underscore glyphshow
57.255859 0.000000 m /t glyphshow
61.176758 0.000000 m /r glyphshow
65.288086 0.000000 m /a glyphshow
71.416016 0.000000 m /n glyphshow
77.753906 0.000000 m /s glyphshow
82.963867 0.000000 m /v glyphshow
88.881836 0.000000 m /e glyphshow
95.034180 0.000000 m /r glyphshow
99.145508 0.000000 m /s glyphshow
104.355469 0.000000 m /e glyphshow
110.507812 0.000000 m /underscore glyphshow
115.507812 0.000000 m /m glyphshow
125.249023 0.000000 m /e glyphshow
131.401367 0.000000 m /t glyphshow
135.322266 0.000000 m /underscore glyphshow
140.322266 0.000000 m /l glyphshow
143.100586 0.000000 m /e glyphshow
149.252930 0.000000 m /p glyphshow
155.600586 0.000000 m /underscore glyphshow
160.600586 0.000000 m /t glyphshow
164.521484 0.000000 m /a glyphshow
170.649414 0.000000 m /n glyphshow
176.987305 0.000000 m /h glyphshow
grestore
gsave
/o {
gsave
newpath
translate
0.8 setlinewidth
1 setlinejoin
0 setlinecap
0 0 m
-3.5 0 l

gsave
0.000 setgray
fill
grestore
stroke
grestore
} bind def
307.3 302.842 o
grestore
gsave
97.346875 299.044792 translate
0.000000 rotate
0.000000 0.000000 m /D glyphshow
7.700195 0.000000 m /E glyphshow
14.018555 0.000000 m /R glyphshow
20.966797 0.000000 m /underscore glyphshow
25.966797 0.000000 m /m glyphshow
35.708008 0.000000 m /a glyphshow
41.835938 0.000000 m /s glyphshow
47.045898 0.000000 m /s glyphshow
52.255859 0.000000 m /underscore glyphshow
57.255859 0.000000 m /t glyphshow
61.176758 0.000000 m /r glyphshow
65.288086 0.000000 m /a glyphshow
71.416016 0.000000 m /n glyphshow
77.753906 0.000000 m /s glyphshow
82.963867 0.000000 m /v glyphshow
88.881836 0.000000 m /e glyphshow
95.034180 0.000000 m /r glyphshow
99.145508 0.000000 m /s glyphshow
104.355469 0.000000 m /e glyphshow
110.507812 0.000000 m /underscore glyphshow
115.507812 0.000000 m /m glyphshow
125.249023 0.000000 m /e glyphshow
131.401367 0.000000 m /t glyphshow
135.322266 0.000000 m /underscore glyphshow
140.322266 0.000000 m /l glyphshow
143.100586 0.000000 m /e glyphshow
149.252930 0.000000 m /p glyphshow
155.600586 0.000000 m /underscore glyphshow
160.600586 0.000000 m /p glyphshow
166.948242 0.000000 m /o glyphshow
173.066406 0.000000 m /w glyphshow
181.245117 0.000000 m /e glyphshow
187.397461 0.000000 m /r glyphshow
191.508789 0.000000 m /underscore glyphshow
196.508789 0.000000 m /six glyphshow
grestore
gsave
/o {
gsave
newpath
translate
0.8 setlinewidth
1 setlinejoin
0 setlinecap
0 0 m
-3.5 0 l

gsave
0.000 setgray
fill
grestore
stroke
grestore
} bind def
307.3 281.958 o
grestore
gsave
97.346875 278.161458 translate
0.000000 rotate
0.000000 0.000000 m /D glyphshow
7.700195 0.000000 m /E glyphshow
14.018555 0.000000 m /R glyphshow
20.966797 0.000000 m /underscore glyphshow
25.966797 0.000000 m /m glyphshow
35.708008 0.000000 m /a glyphshow
41.835938 0.000000 m /s glyphshow
47.045898 0.000000 m /s glyphshow
52.255859 0.000000 m /underscore glyphshow
57.255859 0.000000 m /t glyphshow
61.176758 0.000000 m /r glyphshow
65.288086 0.000000 m /a glyphshow
71.416016 0.000000 m /n glyphshow
77.753906 0.000000 m /s glyphshow
82.963867 0.000000 m /v glyphshow
88.881836 0.000000 m /e glyphshow
95.034180 0.000000 m /r glyphshow
99.145508 0.000000 m /s glyphshow
104.355469 0.000000 m /e glyphshow
110.507812 0.000000 m /underscore glyphshow
115.507812 0.000000 m /m glyphshow
125.249023 0.000000 m /e glyphshow
131.401367 0.000000 m /t glyphshow
135.322266 0.000000 m /underscore glyphshow
140.322266 0.000000 m /l glyphshow
143.100586 0.000000 m /e glyphshow
149.252930 0.000000 m /p glyphshow
155.600586 0.000000 m /underscore glyphshow
160.600586 0.000000 m /p glyphshow
166.948242 0.000000 m /o glyphshow
173.066406 0.000000 m /w glyphshow
181.245117 0.000000 m /e glyphshow
187.397461 0.000000 m /r glyphshow
191.508789 0.000000 m /underscore glyphshow
196.508789 0.000000 m /three glyphshow
grestore
gsave
/o {
gsave
newpath
translate
0.8 setlinewidth
1 setlinejoin
0 setlinecap
0 0 m
-3.5 0 l

gsave
0.000 setgray
fill
grestore
stroke
grestore
} bind def
307.3 261.075 o
grestore
gsave
232.471875 257.278125 translate
0.000000 rotate
0.000000 0.000000 m /D glyphshow
7.700195 0.000000 m /E glyphshow
14.018555 0.000000 m /R glyphshow
20.966797 0.000000 m /underscore glyphshow
25.966797 0.000000 m /p glyphshow
32.314453 0.000000 m /t glyphshow
36.235352 0.000000 m /underscore glyphshow
41.235352 0.000000 m /h glyphshow
47.573242 0.000000 m /underscore glyphshow
52.573242 0.000000 m /l glyphshow
55.351562 0.000000 m /o glyphshow
61.469727 0.000000 m /g glyphshow
grestore
gsave
/o {
gsave
newpath
translate
0.8 setlinewidth
1 setlinejoin
0 setlinecap
0 0 m
-3.5 0 l

gsave
0.000 setgray
fill
grestore
stroke
grestore
} bind def
307.3 240.192 o
grestore
gsave
205.440625 236.394792 translate
0.000000 rotate
0.000000 0.000000 m /D glyphshow
7.700195 0.000000 m /E glyphshow
14.018555 0.000000 m /R glyphshow
20.966797 0.000000 m /underscore glyphshow
25.966797 0.000000 m /p glyphshow
32.314453 0.000000 m /t glyphshow
36.235352 0.000000 m /underscore glyphshow
41.235352 0.000000 m /h glyphshow
47.573242 0.000000 m /underscore glyphshow
52.573242 0.000000 m /p glyphshow
58.920898 0.000000 m /o glyphshow
65.039062 0.000000 m /w glyphshow
73.217773 0.000000 m /e glyphshow
79.370117 0.000000 m /r glyphshow
83.481445 0.000000 m /underscore glyphshow
88.481445 0.000000 m /five glyphshow
grestore
gsave
/o {
gsave
newpath
translate
0.8 setlinewidth
1 setlinejoin
0 setlinecap
0 0 m
-3.5 0 l

gsave
0.000 setgray
fill
grestore
stroke
grestore
} bind def
307.3 219.308 o
grestore
gsave
205.440625 215.511458 translate
0.000000 rotate
0.000000 0.000000 m /D glyphshow
7.700195 0.000000 m /E glyphshow
14.018555 0.000000 m /R glyphshow
20.966797 0.000000 m /underscore glyphshow
25.966797 0.000000 m /p glyphshow
32.314453 0.000000 m /t glyphshow
36.235352 0.000000 m /underscore glyphshow
41.235352 0.000000 m /h glyphshow
47.573242 0.000000 m /underscore glyphshow
52.573242 0.000000 m /p glyphshow
58.920898 0.000000 m /o glyphshow
65.039062 0.000000 m /w glyphshow
73.217773 0.000000 m /e glyphshow
79.370117 0.000000 m /r glyphshow
83.481445 0.000000 m /underscore glyphshow
88.481445 0.000000 m /four glyphshow
grestore
gsave
/o {
gsave
newpath
translate
0.8 setlinewidth
1 setlinejoin
0 setlinecap
0 0 m
-3.5 0 l

gsave
0.000 setgray
fill
grestore
stroke
grestore
} bind def
307.3 198.425 o
grestore
gsave
114.737500 194.628125 translate
0.000000 rotate
0.000000 0.000000 m /a glyphshow
6.127930 0.000000 m /b glyphshow
12.475586 0.000000 m /s glyphshow
17.685547 0.000000 m /underscore glyphshow
22.685547 0.000000 m /d glyphshow
29.033203 0.000000 m /i glyphshow
31.811523 0.000000 m /f glyphshow
35.332031 0.000000 m /f glyphshow
38.852539 0.000000 m /underscore glyphshow
43.852539 0.000000 m /D glyphshow
51.552734 0.000000 m /E glyphshow
57.871094 0.000000 m /R glyphshow
64.819336 0.000000 m /underscore glyphshow
69.819336 0.000000 m /m glyphshow
79.560547 0.000000 m /a glyphshow
85.688477 0.000000 m /s glyphshow
90.898438 0.000000 m /s glyphshow
96.108398 0.000000 m /underscore glyphshow
101.108398 0.000000 m /M glyphshow
109.736328 0.000000 m /M glyphshow
118.364258 0.000000 m /C glyphshow
125.346680 0.000000 m /underscore glyphshow
130.346680 0.000000 m /D glyphshow
138.046875 0.000000 m /E glyphshow
144.365234 0.000000 m /R glyphshow
151.313477 0.000000 m /underscore glyphshow
156.313477 0.000000 m /p glyphshow
162.661133 0.000000 m /t glyphshow
166.582031 0.000000 m /underscore glyphshow
171.582031 0.000000 m /t glyphshow
175.502930 0.000000 m /o glyphshow
181.621094 0.000000 m /t glyphshow
grestore
gsave
/o {
gsave
newpath
translate
0.8 setlinewidth
1 setlinejoin
0 setlinecap
0 0 m
-3.5 0 l

gsave
0.000 setgray
fill
grestore
stroke
grestore
} bind def
307.3 177.542 o
grestore
gsave
117.346875 173.744792 translate
0.000000 rotate
0.000000 0.000000 m /a glyphshow
6.127930 0.000000 m /b glyphshow
12.475586 0.000000 m /s glyphshow
17.685547 0.000000 m /underscore glyphshow
22.685547 0.000000 m /d glyphshow
29.033203 0.000000 m /i glyphshow
31.811523 0.000000 m /f glyphshow
35.332031 0.000000 m /f glyphshow
38.852539 0.000000 m /underscore glyphshow
43.852539 0.000000 m /D glyphshow
51.552734 0.000000 m /E glyphshow
57.871094 0.000000 m /R glyphshow
64.819336 0.000000 m /underscore glyphshow
69.819336 0.000000 m /m glyphshow
79.560547 0.000000 m /a glyphshow
85.688477 0.000000 m /s glyphshow
90.898438 0.000000 m /s glyphshow
96.108398 0.000000 m /underscore glyphshow
101.108398 0.000000 m /M glyphshow
109.736328 0.000000 m /M glyphshow
118.364258 0.000000 m /C glyphshow
125.346680 0.000000 m /underscore glyphshow
130.346680 0.000000 m /P glyphshow
136.376953 0.000000 m /R glyphshow
143.325195 0.000000 m /I glyphshow
146.274414 0.000000 m /underscore glyphshow
151.274414 0.000000 m /t glyphshow
155.195312 0.000000 m /a glyphshow
161.323242 0.000000 m /u glyphshow
167.661133 0.000000 m /underscore glyphshow
172.661133 0.000000 m /p glyphshow
179.008789 0.000000 m /t glyphshow
grestore
gsave
/o {
gsave
newpath
translate
0.8 setlinewidth
1 setlinejoin
0 setlinecap
0 0 m
-3.5 0 l

gsave
0.000 setgray
fill
grestore
stroke
grestore
} bind def
307.3 156.658 o
grestore
gsave
124.378125 152.861458 translate
0.000000 rotate
0.000000 0.000000 m /D glyphshow
7.700195 0.000000 m /E glyphshow
14.018555 0.000000 m /R glyphshow
20.966797 0.000000 m /underscore glyphshow
25.966797 0.000000 m /m glyphshow
35.708008 0.000000 m /a glyphshow
41.835938 0.000000 m /s glyphshow
47.045898 0.000000 m /s glyphshow
52.255859 0.000000 m /underscore glyphshow
57.255859 0.000000 m /t glyphshow
61.176758 0.000000 m /r glyphshow
65.288086 0.000000 m /a glyphshow
71.416016 0.000000 m /n glyphshow
77.753906 0.000000 m /s glyphshow
82.963867 0.000000 m /v glyphshow
88.881836 0.000000 m /e glyphshow
95.034180 0.000000 m /r glyphshow
99.145508 0.000000 m /s glyphshow
104.355469 0.000000 m /e glyphshow
110.507812 0.000000 m /underscore glyphshow
115.507812 0.000000 m /m glyphshow
125.249023 0.000000 m /e glyphshow
131.401367 0.000000 m /t glyphshow
135.322266 0.000000 m /underscore glyphshow
140.322266 0.000000 m /l glyphshow
143.100586 0.000000 m /e glyphshow
149.252930 0.000000 m /p glyphshow
155.600586 0.000000 m /underscore glyphshow
160.600586 0.000000 m /l glyphshow
163.378906 0.000000 m /o glyphshow
169.497070 0.000000 m /g glyphshow
grestore
gsave
/o {
gsave
newpath
translate
0.8 setlinewidth
1 setlinejoin
0 setlinecap
0 0 m
-3.5 0 l

gsave
0.000 setgray
fill
grestore
stroke
grestore
} bind def
307.3 135.775 o
grestore
gsave
187.268750 131.978125 translate
0.000000 rotate
0.000000 0.000000 m /P glyphshow
6.030273 0.000000 m /R glyphshow
12.978516 0.000000 m /I glyphshow
15.927734 0.000000 m /underscore glyphshow
20.927734 0.000000 m /j glyphshow
23.706055 0.000000 m /e glyphshow
29.858398 0.000000 m /t glyphshow
33.779297 0.000000 m /underscore glyphshow
38.779297 0.000000 m /a glyphshow
44.907227 0.000000 m /l glyphshow
47.685547 0.000000 m /l glyphshow
50.463867 0.000000 m /underscore glyphshow
55.463867 0.000000 m /p glyphshow
61.811523 0.000000 m /t glyphshow
65.732422 0.000000 m /underscore glyphshow
70.732422 0.000000 m /p glyphshow
77.080078 0.000000 m /o glyphshow
83.198242 0.000000 m /w glyphshow
91.376953 0.000000 m /e glyphshow
97.529297 0.000000 m /r glyphshow
101.640625 0.000000 m /underscore glyphshow
106.640625 0.000000 m /five glyphshow
grestore
gsave
/o {
gsave
newpath
translate
0.8 setlinewidth
1 setlinejoin
0 setlinecap
0 0 m
-3.5 0 l

gsave
0.000 setgray
fill
grestore
stroke
grestore
} bind def
307.3 114.892 o
grestore
gsave
51.112500 111.094792 translate
0.000000 rotate
0.000000 0.000000 m /a glyphshow
6.127930 0.000000 m /b glyphshow
12.475586 0.000000 m /s glyphshow
17.685547 0.000000 m /underscore glyphshow
22.685547 0.000000 m /d glyphshow
29.033203 0.000000 m /i glyphshow
31.811523 0.000000 m /f glyphshow
35.332031 0.000000 m /f glyphshow
38.852539 0.000000 m /underscore glyphshow
43.852539 0.000000 m /D glyphshow
51.552734 0.000000 m /E glyphshow
57.871094 0.000000 m /R glyphshow
64.819336 0.000000 m /underscore glyphshow
69.819336 0.000000 m /m glyphshow
79.560547 0.000000 m /a glyphshow
85.688477 0.000000 m /s glyphshow
90.898438 0.000000 m /s glyphshow
96.108398 0.000000 m /underscore glyphshow
101.108398 0.000000 m /M glyphshow
109.736328 0.000000 m /M glyphshow
118.364258 0.000000 m /C glyphshow
125.346680 0.000000 m /underscore glyphshow
130.346680 0.000000 m /D glyphshow
138.046875 0.000000 m /E glyphshow
144.365234 0.000000 m /R glyphshow
151.313477 0.000000 m /underscore glyphshow
156.313477 0.000000 m /m glyphshow
166.054688 0.000000 m /e glyphshow
172.207031 0.000000 m /t glyphshow
176.127930 0.000000 m /underscore glyphshow
181.127930 0.000000 m /p glyphshow
187.475586 0.000000 m /h glyphshow
193.813477 0.000000 m /i glyphshow
196.591797 0.000000 m /underscore glyphshow
201.591797 0.000000 m /c glyphshow
207.089844 0.000000 m /e glyphshow
213.242188 0.000000 m /n glyphshow
219.580078 0.000000 m /t glyphshow
223.500977 0.000000 m /r glyphshow
227.612305 0.000000 m /a glyphshow
233.740234 0.000000 m /l glyphshow
236.518555 0.000000 m /i glyphshow
239.296875 0.000000 m /t glyphshow
243.217773 0.000000 m /y glyphshow
grestore
gsave
/o {
gsave
newpath
translate
0.8 setlinewidth
1 setlinejoin
0 setlinecap
0 0 m
-3.5 0 l

gsave
0.000 setgray
fill
grestore
stroke
grestore
} bind def
307.3 94.0083 o
grestore
gsave
182.971875 90.211458 translate
0.000000 rotate
0.000000 0.000000 m /D glyphshow
7.700195 0.000000 m /E glyphshow
14.018555 0.000000 m /R glyphshow
20.966797 0.000000 m /underscore glyphshow
25.966797 0.000000 m /d glyphshow
32.314453 0.000000 m /e glyphshow
38.466797 0.000000 m /l glyphshow
41.245117 0.000000 m /t glyphshow
45.166016 0.000000 m /a glyphshow
51.293945 0.000000 m /r glyphshow
55.405273 0.000000 m /underscore glyphshow
60.405273 0.000000 m /t glyphshow
64.326172 0.000000 m /a glyphshow
70.454102 0.000000 m /u glyphshow
76.791992 0.000000 m /underscore glyphshow
81.791992 0.000000 m /l glyphshow
84.570312 0.000000 m /e glyphshow
90.722656 0.000000 m /p glyphshow
97.070312 0.000000 m /underscore glyphshow
102.070312 0.000000 m /l glyphshow
104.848633 0.000000 m /o glyphshow
110.966797 0.000000 m /g glyphshow
grestore
gsave
/o {
gsave
newpath
translate
0.8 setlinewidth
1 setlinejoin
0 setlinecap
0 0 m
-3.5 0 l

gsave
0.000 setgray
fill
grestore
stroke
grestore
} bind def
307.3 73.125 o
grestore
gsave
187.268750 69.328125 translate
0.000000 rotate
0.000000 0.000000 m /P glyphshow
6.030273 0.000000 m /R glyphshow
12.978516 0.000000 m /I glyphshow
15.927734 0.000000 m /underscore glyphshow
20.927734 0.000000 m /j glyphshow
23.706055 0.000000 m /e glyphshow
29.858398 0.000000 m /t glyphshow
33.779297 0.000000 m /underscore glyphshow
38.779297 0.000000 m /a glyphshow
44.907227 0.000000 m /l glyphshow
47.685547 0.000000 m /l glyphshow
50.463867 0.000000 m /underscore glyphshow
55.463867 0.000000 m /p glyphshow
61.811523 0.000000 m /t glyphshow
65.732422 0.000000 m /underscore glyphshow
70.732422 0.000000 m /p glyphshow
77.080078 0.000000 m /o glyphshow
83.198242 0.000000 m /w glyphshow
91.376953 0.000000 m /e glyphshow
97.529297 0.000000 m /r glyphshow
101.640625 0.000000 m /underscore glyphshow
106.640625 0.000000 m /six glyphshow
grestore
gsave
/o {
gsave
newpath
translate
0.8 setlinewidth
1 setlinejoin
0 setlinecap
0 0 m
-3.5 0 l

gsave
0.000 setgray
fill
grestore
stroke
grestore
} bind def
307.3 52.2417 o
grestore
gsave
24.581250 48.444792 translate
0.000000 rotate
0.000000 0.000000 m /a glyphshow
6.127930 0.000000 m /b glyphshow
12.475586 0.000000 m /s glyphshow
17.685547 0.000000 m /underscore glyphshow
22.685547 0.000000 m /d glyphshow
29.033203 0.000000 m /i glyphshow
31.811523 0.000000 m /f glyphshow
35.332031 0.000000 m /f glyphshow
38.852539 0.000000 m /underscore glyphshow
43.852539 0.000000 m /D glyphshow
51.552734 0.000000 m /E glyphshow
57.871094 0.000000 m /R glyphshow
64.819336 0.000000 m /underscore glyphshow
69.819336 0.000000 m /m glyphshow
79.560547 0.000000 m /a glyphshow
85.688477 0.000000 m /s glyphshow
90.898438 0.000000 m /s glyphshow
96.108398 0.000000 m /underscore glyphshow
101.108398 0.000000 m /t glyphshow
105.029297 0.000000 m /r glyphshow
109.140625 0.000000 m /a glyphshow
115.268555 0.000000 m /n glyphshow
121.606445 0.000000 m /s glyphshow
126.816406 0.000000 m /v glyphshow
132.734375 0.000000 m /e glyphshow
138.886719 0.000000 m /r glyphshow
142.998047 0.000000 m /s glyphshow
148.208008 0.000000 m /e glyphshow
154.360352 0.000000 m /underscore glyphshow
159.360352 0.000000 m /m glyphshow
169.101562 0.000000 m /e glyphshow
175.253906 0.000000 m /t glyphshow
179.174805 0.000000 m /underscore glyphshow
184.174805 0.000000 m /l glyphshow
186.953125 0.000000 m /e glyphshow
193.105469 0.000000 m /p glyphshow
199.453125 0.000000 m /underscore glyphshow
204.453125 0.000000 m /D glyphshow
212.153320 0.000000 m /E glyphshow
218.471680 0.000000 m /R glyphshow
225.419922 0.000000 m /underscore glyphshow
230.419922 0.000000 m /m glyphshow
240.161133 0.000000 m /a glyphshow
246.289062 0.000000 m /s glyphshow
251.499023 0.000000 m /s glyphshow
256.708984 0.000000 m /underscore glyphshow
261.708984 0.000000 m /v glyphshow
267.626953 0.000000 m /i glyphshow
270.405273 0.000000 m /s glyphshow
grestore
gsave
18.503125 211.585938 translate
90.000000 rotate
0.000000 0.000000 m /f glyphshow
3.520508 0.000000 m /e glyphshow
9.672852 0.000000 m /a glyphshow
15.800781 0.000000 m /t glyphshow
19.721680 0.000000 m /u glyphshow
26.059570 0.000000 m /r glyphshow
30.170898 0.000000 m /e glyphshow
grestore
2.700 setlinewidth
2 setlinecap
0.260 setgray
gsave
398.4 375.9 307.3 41.8 clipbox
0 0 m
stroke
grestore
gsave
398.4 375.9 307.3 41.8 clipbox
0 0 m
stroke
grestore
gsave
398.4 375.9 307.3 41.8 clipbox
0 0 m
stroke
grestore
gsave
398.4 375.9 307.3 41.8 clipbox
0 0 m
stroke
grestore
gsave
398.4 375.9 307.3 41.8 clipbox
0 0 m
stroke
grestore
gsave
398.4 375.9 307.3 41.8 clipbox
0 0 m
stroke
grestore
gsave
398.4 375.9 307.3 41.8 clipbox
0 0 m
stroke
grestore
gsave
398.4 375.9 307.3 41.8 clipbox
0 0 m
stroke
grestore
gsave
398.4 375.9 307.3 41.8 clipbox
0 0 m
stroke
grestore
gsave
398.4 375.9 307.3 41.8 clipbox
0 0 m
stroke
grestore
gsave
398.4 375.9 307.3 41.8 clipbox
0 0 m
stroke
grestore
gsave
398.4 375.9 307.3 41.8 clipbox
0 0 m
stroke
grestore
gsave
398.4 375.9 307.3 41.8 clipbox
0 0 m
stroke
grestore
gsave
398.4 375.9 307.3 41.8 clipbox
0 0 m
stroke
grestore
gsave
398.4 375.9 307.3 41.8 clipbox
0 0 m
stroke
grestore
gsave
398.4 375.9 307.3 41.8 clipbox
0 0 m
stroke
grestore
gsave
398.4 375.9 307.3 41.8 clipbox
0 0 m
stroke
grestore
gsave
398.4 375.9 307.3 41.8 clipbox
0 0 m
stroke
grestore
0.800 setlinewidth
0 setlinejoin
[] 0 setdash
0.000 setgray
gsave
307.3 41.8 m
307.3 417.7 l
stroke
grestore
gsave
705.7 41.8 m
705.7 417.7 l
stroke
grestore
gsave
307.3 41.8 m
705.7 41.8 l
stroke
grestore
gsave
307.3 417.7 m
705.7 417.7 l
stroke
grestore

end
showpage
